-- Merging decision tree log ---
manifest
ADDED from /Users/gonzalez/AndroidStudioProjects/Mapas/app/src/main/AndroidManifest.xml:2:1-28:12
	package
		ADDED from /Users/gonzalez/AndroidStudioProjects/Mapas/app/src/main/AndroidManifest.xml:3:5-38
		INJECTED from /Users/gonzalez/AndroidStudioProjects/Mapas/app/src/main/AndroidManifest.xml
		INJECTED from /Users/gonzalez/AndroidStudioProjects/Mapas/app/src/main/AndroidManifest.xml
	android:versionName
		INJECTED from /Users/gonzalez/AndroidStudioProjects/Mapas/app/src/main/AndroidManifest.xml
		INJECTED from /Users/gonzalez/AndroidStudioProjects/Mapas/app/src/main/AndroidManifest.xml
	xmlns:android
		ADDED from /Users/gonzalez/AndroidStudioProjects/Mapas/app/src/main/AndroidManifest.xml:2:11-69
	android:versionCode
		INJECTED from /Users/gonzalez/AndroidStudioProjects/Mapas/app/src/main/AndroidManifest.xml
		INJECTED from /Users/gonzalez/AndroidStudioProjects/Mapas/app/src/main/AndroidManifest.xml
uses-permission#android.permission.INTERNET
ADDED from /Users/gonzalez/AndroidStudioProjects/Mapas/app/src/main/AndroidManifest.xml:5:5-67
	android:name
		ADDED from /Users/gonzalez/AndroidStudioProjects/Mapas/app/src/main/AndroidManifest.xml:5:22-64
uses-permission#android.permission.ACCESS_FINE_LOCATION
ADDED from /Users/gonzalez/AndroidStudioProjects/Mapas/app/src/main/AndroidManifest.xml:6:5-79
	android:name
		ADDED from /Users/gonzalez/AndroidStudioProjects/Mapas/app/src/main/AndroidManifest.xml:6:22-76
uses-permission#android.permission.ACCESS_COARSE_LOCATION
ADDED from /Users/gonzalez/AndroidStudioProjects/Mapas/app/src/main/AndroidManifest.xml:7:5-81
	android:name
		ADDED from /Users/gonzalez/AndroidStudioProjects/Mapas/app/src/main/AndroidManifest.xml:7:22-78
application
ADDED from /Users/gonzalez/AndroidStudioProjects/Mapas/app/src/main/AndroidManifest.xml:9:5-26:19
MERGED from [com.android.support:appcompat-v7:25.1.1] /Users/gonzalez/AndroidStudioProjects/Mapas/app/build/intermediates/exploded-aar/com.android.support/appcompat-v7/25.1.1/AndroidManifest.xml:25:5-20
MERGED from [com.android.support:animated-vector-drawable:25.1.1] /Users/gonzalez/AndroidStudioProjects/Mapas/app/build/intermediates/exploded-aar/com.android.support/animated-vector-drawable/25.1.1/AndroidManifest.xml:22:5-20
MERGED from [com.android.support:support-vector-drawable:25.1.1] /Users/gonzalez/AndroidStudioProjects/Mapas/app/build/intermediates/exploded-aar/com.android.support/support-vector-drawable/25.1.1/AndroidManifest.xml:23:5-20
MERGED from [com.google.android.gms:play-services-appindexing:8.4.0] /Users/gonzalez/AndroidStudioProjects/Mapas/app/build/intermediates/exploded-aar/com.google.android.gms/play-services-appindexing/8.4.0/AndroidManifest.xml:19:5-20
MERGED from [com.google.android.gms:play-services-basement:8.4.0] /Users/gonzalez/AndroidStudioProjects/Mapas/app/build/intermediates/exploded-aar/com.google.android.gms/play-services-basement/8.4.0/AndroidManifest.xml:20:5-24:19
MERGED from [com.android.support:support-v4:25.1.1] /Users/gonzalez/AndroidStudioProjects/Mapas/app/build/intermediates/exploded-aar/com.android.support/support-v4/25.1.1/AndroidManifest.xml:25:5-20
MERGED from [com.android.support:support-fragment:25.1.1] /Users/gonzalez/AndroidStudioProjects/Mapas/app/build/intermediates/exploded-aar/com.android.support/support-fragment/25.1.1/AndroidManifest.xml:25:5-20
MERGED from [com.android.support:support-media-compat:25.1.1] /Users/gonzalez/AndroidStudioProjects/Mapas/app/build/intermediates/exploded-aar/com.android.support/support-media-compat/25.1.1/AndroidManifest.xml:25:5-20
MERGED from [com.android.support:support-core-ui:25.1.1] /Users/gonzalez/AndroidStudioProjects/Mapas/app/build/intermediates/exploded-aar/com.android.support/support-core-ui/25.1.1/AndroidManifest.xml:25:5-20
MERGED from [com.android.support:support-core-utils:25.1.1] /Users/gonzalez/AndroidStudioProjects/Mapas/app/build/intermediates/exploded-aar/com.android.support/support-core-utils/25.1.1/AndroidManifest.xml:25:5-20
MERGED from [com.android.support:support-compat:25.1.1] /Users/gonzalez/AndroidStudioProjects/Mapas/app/build/intermediates/exploded-aar/com.android.support/support-compat/25.1.1/AndroidManifest.xml:25:5-20
	android:label
		ADDED from /Users/gonzalez/AndroidStudioProjects/Mapas/app/src/main/AndroidManifest.xml:12:9-41
	android:supportsRtl
		ADDED from /Users/gonzalez/AndroidStudioProjects/Mapas/app/src/main/AndroidManifest.xml:13:9-35
	android:allowBackup
		ADDED from /Users/gonzalez/AndroidStudioProjects/Mapas/app/src/main/AndroidManifest.xml:10:9-35
	android:icon
		ADDED from /Users/gonzalez/AndroidStudioProjects/Mapas/app/src/main/AndroidManifest.xml:11:9-43
	android:theme
		ADDED from /Users/gonzalez/AndroidStudioProjects/Mapas/app/src/main/AndroidManifest.xml:14:9-40
activity#com.demo.gonzalez.mapas.MainActivity
ADDED from /Users/gonzalez/AndroidStudioProjects/Mapas/app/src/main/AndroidManifest.xml:15:9-21:20
	android:name
		ADDED from /Users/gonzalez/AndroidStudioProjects/Mapas/app/src/main/AndroidManifest.xml:15:19-47
intent-filter#android.intent.action.MAIN+android.intent.category.LAUNCHER
ADDED from /Users/gonzalez/AndroidStudioProjects/Mapas/app/src/main/AndroidManifest.xml:16:13-20:29
action#android.intent.action.MAIN
ADDED from /Users/gonzalez/AndroidStudioProjects/Mapas/app/src/main/AndroidManifest.xml:17:17-69
	android:name
		ADDED from /Users/gonzalez/AndroidStudioProjects/Mapas/app/src/main/AndroidManifest.xml:17:25-66
category#android.intent.category.LAUNCHER
ADDED from /Users/gonzalez/AndroidStudioProjects/Mapas/app/src/main/AndroidManifest.xml:19:17-77
	android:name
		ADDED from /Users/gonzalez/AndroidStudioProjects/Mapas/app/src/main/AndroidManifest.xml:19:27-74
meta-data#com.google.android.gms.version
ADDED from /Users/gonzalez/AndroidStudioProjects/Mapas/app/src/main/AndroidManifest.xml:23:9-25:69
MERGED from [com.google.android.gms:play-services-basement:8.4.0] /Users/gonzalez/AndroidStudioProjects/Mapas/app/build/intermediates/exploded-aar/com.google.android.gms/play-services-basement/8.4.0/AndroidManifest.xml:21:9-23:69
	android:value
		ADDED from /Users/gonzalez/AndroidStudioProjects/Mapas/app/src/main/AndroidManifest.xml:25:13-66
	android:name
		ADDED from /Users/gonzalez/AndroidStudioProjects/Mapas/app/src/main/AndroidManifest.xml:24:13-58
uses-sdk
INJECTED from /Users/gonzalez/AndroidStudioProjects/Mapas/app/src/main/AndroidManifest.xml reason: use-sdk injection requested
MERGED from [com.android.support:appcompat-v7:25.1.1] /Users/gonzalez/AndroidStudioProjects/Mapas/app/build/intermediates/exploded-aar/com.android.support/appcompat-v7/25.1.1/AndroidManifest.xml:21:5-23:78
MERGED from [com.android.support:animated-vector-drawable:25.1.1] /Users/gonzalez/AndroidStudioProjects/Mapas/app/build/intermediates/exploded-aar/com.android.support/animated-vector-drawable/25.1.1/AndroidManifest.xml:20:5-44
MERGED from [com.android.support:support-vector-drawable:25.1.1] /Users/gonzalez/AndroidStudioProjects/Mapas/app/build/intermediates/exploded-aar/com.android.support/support-vector-drawable/25.1.1/AndroidManifest.xml:21:5-43
MERGED from [com.google.android.gms:play-services-appindexing:8.4.0] /Users/gonzalez/AndroidStudioProjects/Mapas/app/build/intermediates/exploded-aar/com.google.android.gms/play-services-appindexing/8.4.0/AndroidManifest.xml:18:5-42
MERGED from [com.google.android.gms:play-services-base:8.4.0] /Users/gonzalez/AndroidStudioProjects/Mapas/app/build/intermediates/exploded-aar/com.google.android.gms/play-services-base/8.4.0/AndroidManifest.xml:18:5-42
MERGED from [com.google.android.gms:play-services-basement:8.4.0] /Users/gonzalez/AndroidStudioProjects/Mapas/app/build/intermediates/exploded-aar/com.google.android.gms/play-services-basement/8.4.0/AndroidManifest.xml:18:5-42
MERGED from [com.android.support:support-v4:25.1.1] /Users/gonzalez/AndroidStudioProjects/Mapas/app/build/intermediates/exploded-aar/com.android.support/support-v4/25.1.1/AndroidManifest.xml:21:5-23:54
MERGED from [com.android.support:support-fragment:25.1.1] /Users/gonzalez/AndroidStudioProjects/Mapas/app/build/intermediates/exploded-aar/com.android.support/support-fragment/25.1.1/AndroidManifest.xml:21:5-23:60
MERGED from [com.android.support:support-media-compat:25.1.1] /Users/gonzalez/AndroidStudioProjects/Mapas/app/build/intermediates/exploded-aar/com.android.support/support-media-compat/25.1.1/AndroidManifest.xml:21:5-23:63
MERGED from [com.android.support:support-core-ui:25.1.1] /Users/gonzalez/AndroidStudioProjects/Mapas/app/build/intermediates/exploded-aar/com.android.support/support-core-ui/25.1.1/AndroidManifest.xml:21:5-23:58
MERGED from [com.android.support:support-core-utils:25.1.1] /Users/gonzalez/AndroidStudioProjects/Mapas/app/build/intermediates/exploded-aar/com.android.support/support-core-utils/25.1.1/AndroidManifest.xml:21:5-23:61
MERGED from [com.android.support:support-compat:25.1.1] /Users/gonzalez/AndroidStudioProjects/Mapas/app/build/intermediates/exploded-aar/com.android.support/support-compat/25.1.1/AndroidManifest.xml:21:5-23:58
	tools:overrideLibrary
		ADDED from [com.android.support:appcompat-v7:25.1.1] /Users/gonzalez/AndroidStudioProjects/Mapas/app/build/intermediates/exploded-aar/com.android.support/appcompat-v7/25.1.1/AndroidManifest.xml:23:9-75
	android:targetSdkVersion
		INJECTED from /Users/gonzalez/AndroidStudioProjects/Mapas/app/src/main/AndroidManifest.xml
		INJECTED from /Users/gonzalez/AndroidStudioProjects/Mapas/app/src/main/AndroidManifest.xml
	android:minSdkVersion
		INJECTED from /Users/gonzalez/AndroidStudioProjects/Mapas/app/src/main/AndroidManifest.xml
		INJECTED from /Users/gonzalez/AndroidStudioProjects/Mapas/app/src/main/AndroidManifest.xml
